{
    "input": {
        "blocklist": [],
        "deesser#0": {
            "bypass": false,
            "detection": "RMS",
            "f1-freq": 6000.0,
            "f1-level": 0.0,
            "f2-freq": 4500.0,
            "f2-level": 12.0,
            "f2-q": 1.0,
            "input-gain": 0.0,
            "laxity": 15,
            "makeup": 0.0,
            "mode": "Wide",
            "output-gain": 0.0,
            "ratio": 3.0,
            "sc-listen": false,
            "threshold": -18.0
        },
        "plugins_order": [
            "deesser#0",
            "rnnoise#0",
            "speex#0"
        ],
        "rnnoise#0": {
            "bypass": false,
            "enable-vad": false,
            "input-gain": 0.0,
            "model-path": "",
            "output-gain": 0.2,
            "release": 20.0,
            "vad-thres": 50.0,
            "wet": 0.0
        },
        "speex#0": {
            "bypass": false,
            "enable-agc": false,
            "enable-denoise": false,
            "enable-dereverb": false,
            "input-gain": -7.5,
            "noise-suppression": -70,
            "output-gain": 13.9,
            "vad": {
                "enable": true,
                "probability-continue": 90,
                "probability-start": 95
            }
        }
    }
}
